PWD /home/volker/Sync/DatenVolker/git/sm_with_julia/Brüsselator
INPUT /usr/share/texmf-dist/web2c/texmf.cnf
INPUT /var/lib/texmf/web2c/pdftex/pdflatex.fmt
INPUT /home/volker/Sync/DatenVolker/git/sm_with_julia/Brüsselator/eqs.tex
OUTPUT /home/volker/Sync/DatenVolker/git/sm_with_julia/Brüsselator/eqs.log
INPUT /home/volker/Sync/DatenVolker/git/sm_with_julia/Brüsselator/../../../latex.tex
INPUT /home/volker/Sync/DatenVolker/git/sm_with_julia/Brüsselator/../../../latex.tex
INPUT /home/volker/Sync/DatenVolker/git/sm_with_julia/Brüsselator/../../../latex.tex
INPUT /home/volker/Sync/DatenVolker/git/sm_with_julia/Brüsselator/../../../latex.tex
INPUT /usr/share/texmf-dist/tex/latex/base/article.cls
INPUT /usr/share/texmf-dist/tex/latex/base/article.cls
INPUT /usr/share/texmf-dist/tex/latex/base/article.cls
INPUT /usr/share/texmf-dist/tex/latex/base/article.cls
INPUT /usr/share/texmf-dist/tex/latex/base/article.cls
INPUT /usr/share/texmf-dist/tex/latex/base/article.cls
INPUT /usr/share/texmf-dist/tex/latex/base/article.cls
INPUT /usr/share/texmf-dist/tex/latex/base/article.cls
INPUT /usr/share/texmf-dist/tex/latex/base/article.cls
INPUT /usr/share/texmf-dist/tex/latex/base/article.cls
INPUT /usr/share/texmf-dist/tex/latex/base/article.cls
INPUT /usr/share/texmf-dist/tex/latex/base/size10.clo
INPUT /usr/share/texmf-dist/tex/latex/base/size10.clo
INPUT /usr/share/texmf-dist/tex/latex/base/size10.clo
INPUT /usr/share/texmf-dist/tex/latex/base/size10.clo
INPUT /usr/share/texmf-dist/tex/latex/base/inputenc.sty
INPUT /usr/share/texmf-dist/tex/latex/base/inputenc.sty
INPUT /usr/share/texmf-dist/tex/latex/base/inputenc.sty
INPUT /usr/share/texmf-dist/tex/latex/base/inputenc.sty
INPUT /usr/share/texmf-dist/tex/latex/base/inputenc.sty
INPUT /usr/share/texmf-dist/tex/latex/base/inputenc.sty
INPUT /usr/share/texmf-dist/tex/latex/base/inputenc.sty
INPUT /usr/share/texmf-dist/tex/latex/base/inputenc.sty
INPUT /usr/share/texmf-dist/tex/latex/base/inputenc.sty
INPUT /usr/share/texmf-dist/tex/latex/base/inputenc.sty
INPUT /usr/share/texmf-dist/tex/latex/base/inputenc.sty
INPUT /usr/share/texmf-dist/tex/latex/graphics/graphicx.sty
INPUT /usr/share/texmf-dist/tex/latex/graphics/graphicx.sty
INPUT /usr/share/texmf-dist/tex/latex/graphics/graphicx.sty
INPUT /usr/share/texmf-dist/tex/latex/graphics/graphicx.sty
INPUT /usr/share/texmf-dist/tex/latex/graphics/graphicx.sty
INPUT /usr/share/texmf-dist/tex/latex/graphics/graphicx.sty
INPUT /usr/share/texmf-dist/tex/latex/graphics/graphicx.sty
INPUT /usr/share/texmf-dist/tex/latex/graphics/graphicx.sty
INPUT /usr/share/texmf-dist/tex/latex/graphics/graphicx.sty
INPUT /usr/share/texmf-dist/tex/latex/graphics/graphicx.sty
INPUT /usr/share/texmf-dist/tex/latex/graphics/graphicx.sty
INPUT /usr/share/texmf-dist/tex/latex/graphics/keyval.sty
INPUT /usr/share/texmf-dist/tex/latex/graphics/keyval.sty
INPUT /usr/share/texmf-dist/tex/latex/graphics/keyval.sty
INPUT /usr/share/texmf-dist/tex/latex/graphics/keyval.sty
INPUT /usr/share/texmf-dist/tex/latex/graphics/keyval.sty
INPUT /usr/share/texmf-dist/tex/latex/graphics/keyval.sty
INPUT /usr/share/texmf-dist/tex/latex/graphics/keyval.sty
INPUT /usr/share/texmf-dist/tex/latex/graphics/keyval.sty
INPUT /usr/share/texmf-dist/tex/latex/graphics/keyval.sty
INPUT /usr/share/texmf-dist/tex/latex/graphics/keyval.sty
INPUT /usr/share/texmf-dist/tex/latex/graphics/keyval.sty
INPUT /usr/share/texmf-dist/tex/latex/graphics/graphics.sty
INPUT /usr/share/texmf-dist/tex/latex/graphics/graphics.sty
INPUT /usr/share/texmf-dist/tex/latex/graphics/graphics.sty
INPUT /usr/share/texmf-dist/tex/latex/graphics/graphics.sty
INPUT /usr/share/texmf-dist/tex/latex/graphics/graphics.sty
INPUT /usr/share/texmf-dist/tex/latex/graphics/graphics.sty
INPUT /usr/share/texmf-dist/tex/latex/graphics/graphics.sty
INPUT /usr/share/texmf-dist/tex/latex/graphics/graphics.sty
INPUT /usr/share/texmf-dist/tex/latex/graphics/graphics.sty
INPUT /usr/share/texmf-dist/tex/latex/graphics/graphics.sty
INPUT /usr/share/texmf-dist/tex/latex/graphics/graphics.sty
INPUT /usr/share/texmf-dist/tex/latex/graphics/trig.sty
INPUT /usr/share/texmf-dist/tex/latex/graphics/trig.sty
INPUT /usr/share/texmf-dist/tex/latex/graphics/trig.sty
INPUT /usr/share/texmf-dist/tex/latex/graphics/trig.sty
INPUT /usr/share/texmf-dist/tex/latex/graphics/trig.sty
INPUT /usr/share/texmf-dist/tex/latex/graphics/trig.sty
INPUT /usr/share/texmf-dist/tex/latex/graphics/trig.sty
INPUT /usr/share/texmf-dist/tex/latex/graphics/trig.sty
INPUT /usr/share/texmf-dist/tex/latex/graphics/trig.sty
INPUT /usr/share/texmf-dist/tex/latex/graphics/trig.sty
INPUT /usr/share/texmf-dist/tex/latex/graphics/trig.sty
INPUT /usr/share/texmf-dist/tex/latex/graphics-cfg/graphics.cfg
INPUT /usr/share/texmf-dist/tex/latex/graphics-cfg/graphics.cfg
INPUT /usr/share/texmf-dist/tex/latex/graphics-cfg/graphics.cfg
INPUT /usr/share/texmf-dist/tex/latex/graphics-cfg/graphics.cfg
INPUT /usr/share/texmf-dist/tex/latex/graphics-def/pdftex.def
INPUT /usr/share/texmf-dist/tex/latex/graphics-def/pdftex.def
INPUT /usr/share/texmf-dist/tex/latex/graphics-def/pdftex.def
INPUT /usr/share/texmf-dist/tex/latex/graphics-def/pdftex.def
INPUT /usr/share/texmf-dist/tex/latex/float/float.sty
INPUT /usr/share/texmf-dist/tex/latex/float/float.sty
INPUT /usr/share/texmf-dist/tex/latex/float/float.sty
INPUT /usr/share/texmf-dist/tex/latex/float/float.sty
INPUT /usr/share/texmf-dist/tex/latex/float/float.sty
INPUT /usr/share/texmf-dist/tex/latex/float/float.sty
INPUT /usr/share/texmf-dist/tex/latex/float/float.sty
INPUT /usr/share/texmf-dist/tex/latex/float/float.sty
INPUT /usr/share/texmf-dist/tex/latex/float/float.sty
INPUT /usr/share/texmf-dist/tex/latex/float/float.sty
INPUT /usr/share/texmf-dist/tex/latex/float/float.sty
INPUT /usr/share/texmf-dist/tex/latex/caption/caption.sty
INPUT /usr/share/texmf-dist/tex/latex/caption/caption.sty
INPUT /usr/share/texmf-dist/tex/latex/caption/caption.sty
INPUT /usr/share/texmf-dist/tex/latex/caption/caption.sty
INPUT /usr/share/texmf-dist/tex/latex/caption/caption.sty
INPUT /usr/share/texmf-dist/tex/latex/caption/caption.sty
INPUT /usr/share/texmf-dist/tex/latex/caption/caption.sty
INPUT /usr/share/texmf-dist/tex/latex/caption/caption.sty
INPUT /usr/share/texmf-dist/tex/latex/caption/caption.sty
INPUT /usr/share/texmf-dist/tex/latex/caption/caption.sty
INPUT /usr/share/texmf-dist/tex/latex/caption/caption.sty
INPUT /usr/share/texmf-dist/tex/latex/caption/caption3.sty
INPUT /usr/share/texmf-dist/tex/latex/caption/caption3.sty
INPUT /usr/share/texmf-dist/tex/latex/caption/caption3.sty
INPUT /usr/share/texmf-dist/tex/latex/caption/caption3.sty
INPUT /usr/share/texmf-dist/tex/latex/caption/caption3.sty
INPUT /usr/share/texmf-dist/tex/latex/caption/caption3.sty
INPUT /usr/share/texmf-dist/tex/latex/caption/caption3.sty
INPUT /usr/share/texmf-dist/tex/latex/caption/caption3.sty
INPUT /usr/share/texmf-dist/tex/latex/caption/caption3.sty
INPUT /usr/share/texmf-dist/tex/latex/caption/caption3.sty
INPUT /usr/share/texmf-dist/tex/latex/caption/caption3.sty
INPUT /usr/share/texmf-dist/tex/latex/graphics/keyval.sty
INPUT /usr/share/texmf-dist/tex/latex/caption/subcaption.sty
INPUT /usr/share/texmf-dist/tex/latex/caption/subcaption.sty
INPUT /usr/share/texmf-dist/tex/latex/caption/subcaption.sty
INPUT /usr/share/texmf-dist/tex/latex/caption/subcaption.sty
INPUT /usr/share/texmf-dist/tex/latex/caption/subcaption.sty
INPUT /usr/share/texmf-dist/tex/latex/caption/subcaption.sty
INPUT /usr/share/texmf-dist/tex/latex/caption/subcaption.sty
INPUT /usr/share/texmf-dist/tex/latex/caption/subcaption.sty
INPUT /usr/share/texmf-dist/tex/latex/caption/subcaption.sty
INPUT /usr/share/texmf-dist/tex/latex/caption/subcaption.sty
INPUT /usr/share/texmf-dist/tex/latex/caption/subcaption.sty
INPUT /usr/share/texmf-dist/tex/latex/caption/caption.sty
INPUT /usr/share/texmf-dist/tex/latex/hyperref/hyperref.sty
INPUT /usr/share/texmf-dist/tex/latex/hyperref/hyperref.sty
INPUT /usr/share/texmf-dist/tex/latex/hyperref/hyperref.sty
INPUT /usr/share/texmf-dist/tex/latex/hyperref/hyperref.sty
INPUT /usr/share/texmf-dist/tex/latex/hyperref/hyperref.sty
INPUT /usr/share/texmf-dist/tex/latex/hyperref/hyperref.sty
INPUT /usr/share/texmf-dist/tex/latex/hyperref/hyperref.sty
INPUT /usr/share/texmf-dist/tex/latex/hyperref/hyperref.sty
INPUT /usr/share/texmf-dist/tex/latex/hyperref/hyperref.sty
INPUT /usr/share/texmf-dist/tex/latex/hyperref/hyperref.sty
INPUT /usr/share/texmf-dist/tex/latex/hyperref/hyperref.sty
INPUT /usr/share/texmf-dist/tex/generic/ltxcmds/ltxcmds.sty
INPUT /usr/share/texmf-dist/tex/generic/ltxcmds/ltxcmds.sty
INPUT /usr/share/texmf-dist/tex/generic/ltxcmds/ltxcmds.sty
INPUT /usr/share/texmf-dist/tex/generic/ltxcmds/ltxcmds.sty
INPUT /usr/share/texmf-dist/tex/generic/ltxcmds/ltxcmds.sty
INPUT /usr/share/texmf-dist/tex/generic/ltxcmds/ltxcmds.sty
INPUT /usr/share/texmf-dist/tex/generic/ltxcmds/ltxcmds.sty
INPUT /usr/share/texmf-dist/tex/generic/ltxcmds/ltxcmds.sty
INPUT /usr/share/texmf-dist/tex/generic/ltxcmds/ltxcmds.sty
INPUT /usr/share/texmf-dist/tex/generic/ltxcmds/ltxcmds.sty
INPUT /usr/share/texmf-dist/tex/generic/ltxcmds/ltxcmds.sty
INPUT /usr/share/texmf-dist/tex/generic/iftex/iftex.sty
INPUT /usr/share/texmf-dist/tex/generic/iftex/iftex.sty
INPUT /usr/share/texmf-dist/tex/generic/iftex/iftex.sty
INPUT /usr/share/texmf-dist/tex/generic/iftex/iftex.sty
INPUT /usr/share/texmf-dist/tex/generic/iftex/iftex.sty
INPUT /usr/share/texmf-dist/tex/generic/iftex/iftex.sty
INPUT /usr/share/texmf-dist/tex/generic/iftex/iftex.sty
INPUT /usr/share/texmf-dist/tex/generic/iftex/iftex.sty
INPUT /usr/share/texmf-dist/tex/generic/iftex/iftex.sty
INPUT /usr/share/texmf-dist/tex/generic/iftex/iftex.sty
INPUT /usr/share/texmf-dist/tex/generic/iftex/iftex.sty
INPUT /usr/share/texmf-dist/tex/generic/pdftexcmds/pdftexcmds.sty
INPUT /usr/share/texmf-dist/tex/generic/pdftexcmds/pdftexcmds.sty
INPUT /usr/share/texmf-dist/tex/generic/pdftexcmds/pdftexcmds.sty
INPUT /usr/share/texmf-dist/tex/generic/pdftexcmds/pdftexcmds.sty
INPUT /usr/share/texmf-dist/tex/generic/pdftexcmds/pdftexcmds.sty
INPUT /usr/share/texmf-dist/tex/generic/pdftexcmds/pdftexcmds.sty
INPUT /usr/share/texmf-dist/tex/generic/pdftexcmds/pdftexcmds.sty
INPUT /usr/share/texmf-dist/tex/generic/pdftexcmds/pdftexcmds.sty
INPUT /usr/share/texmf-dist/tex/generic/pdftexcmds/pdftexcmds.sty
INPUT /usr/share/texmf-dist/tex/generic/pdftexcmds/pdftexcmds.sty
INPUT /usr/share/texmf-dist/tex/generic/pdftexcmds/pdftexcmds.sty
INPUT /usr/share/texmf-dist/tex/generic/infwarerr/infwarerr.sty
INPUT /usr/share/texmf-dist/tex/generic/infwarerr/infwarerr.sty
INPUT /usr/share/texmf-dist/tex/generic/infwarerr/infwarerr.sty
INPUT /usr/share/texmf-dist/tex/generic/infwarerr/infwarerr.sty
INPUT /usr/share/texmf-dist/tex/generic/infwarerr/infwarerr.sty
INPUT /usr/share/texmf-dist/tex/generic/infwarerr/infwarerr.sty
INPUT /usr/share/texmf-dist/tex/generic/infwarerr/infwarerr.sty
INPUT /usr/share/texmf-dist/tex/generic/infwarerr/infwarerr.sty
INPUT /usr/share/texmf-dist/tex/generic/infwarerr/infwarerr.sty
INPUT /usr/share/texmf-dist/tex/generic/infwarerr/infwarerr.sty
INPUT /usr/share/texmf-dist/tex/generic/infwarerr/infwarerr.sty
INPUT /usr/share/texmf-dist/tex/generic/iftex/iftex.sty
INPUT /usr/share/texmf-dist/tex/generic/ltxcmds/ltxcmds.sty
INPUT /usr/share/texmf-dist/tex/generic/infwarerr/infwarerr.sty
INPUT /usr/share/texmf-dist/tex/latex/graphics/keyval.sty
INPUT /usr/share/texmf-dist/tex/generic/kvsetkeys/kvsetkeys.sty
INPUT /usr/share/texmf-dist/tex/generic/kvsetkeys/kvsetkeys.sty
INPUT /usr/share/texmf-dist/tex/generic/kvsetkeys/kvsetkeys.sty
INPUT /usr/share/texmf-dist/tex/generic/kvsetkeys/kvsetkeys.sty
INPUT /usr/share/texmf-dist/tex/generic/kvsetkeys/kvsetkeys.sty
INPUT /usr/share/texmf-dist/tex/generic/kvsetkeys/kvsetkeys.sty
INPUT /usr/share/texmf-dist/tex/generic/kvsetkeys/kvsetkeys.sty
INPUT /usr/share/texmf-dist/tex/generic/kvsetkeys/kvsetkeys.sty
INPUT /usr/share/texmf-dist/tex/generic/kvsetkeys/kvsetkeys.sty
INPUT /usr/share/texmf-dist/tex/generic/kvsetkeys/kvsetkeys.sty
INPUT /usr/share/texmf-dist/tex/generic/kvsetkeys/kvsetkeys.sty
INPUT /usr/share/texmf-dist/tex/generic/kvdefinekeys/kvdefinekeys.sty
INPUT /usr/share/texmf-dist/tex/generic/kvdefinekeys/kvdefinekeys.sty
INPUT /usr/share/texmf-dist/tex/generic/kvdefinekeys/kvdefinekeys.sty
INPUT /usr/share/texmf-dist/tex/generic/kvdefinekeys/kvdefinekeys.sty
INPUT /usr/share/texmf-dist/tex/generic/kvdefinekeys/kvdefinekeys.sty
INPUT /usr/share/texmf-dist/tex/generic/kvdefinekeys/kvdefinekeys.sty
INPUT /usr/share/texmf-dist/tex/generic/kvdefinekeys/kvdefinekeys.sty
INPUT /usr/share/texmf-dist/tex/generic/kvdefinekeys/kvdefinekeys.sty
INPUT /usr/share/texmf-dist/tex/generic/kvdefinekeys/kvdefinekeys.sty
INPUT /usr/share/texmf-dist/tex/generic/kvdefinekeys/kvdefinekeys.sty
INPUT /usr/share/texmf-dist/tex/generic/kvdefinekeys/kvdefinekeys.sty
INPUT /usr/share/texmf-dist/tex/generic/pdfescape/pdfescape.sty
INPUT /usr/share/texmf-dist/tex/generic/pdfescape/pdfescape.sty
INPUT /usr/share/texmf-dist/tex/generic/pdfescape/pdfescape.sty
INPUT /usr/share/texmf-dist/tex/generic/pdfescape/pdfescape.sty
INPUT /usr/share/texmf-dist/tex/generic/pdfescape/pdfescape.sty
INPUT /usr/share/texmf-dist/tex/generic/pdfescape/pdfescape.sty
INPUT /usr/share/texmf-dist/tex/generic/pdfescape/pdfescape.sty
INPUT /usr/share/texmf-dist/tex/generic/pdfescape/pdfescape.sty
INPUT /usr/share/texmf-dist/tex/generic/pdfescape/pdfescape.sty
INPUT /usr/share/texmf-dist/tex/generic/pdfescape/pdfescape.sty
INPUT /usr/share/texmf-dist/tex/generic/pdfescape/pdfescape.sty
INPUT /usr/share/texmf-dist/tex/generic/ltxcmds/ltxcmds.sty
INPUT /usr/share/texmf-dist/tex/generic/pdftexcmds/pdftexcmds.sty
INPUT /usr/share/texmf-dist/tex/latex/hycolor/hycolor.sty
INPUT /usr/share/texmf-dist/tex/latex/hycolor/hycolor.sty
INPUT /usr/share/texmf-dist/tex/latex/hycolor/hycolor.sty
INPUT /usr/share/texmf-dist/tex/latex/hycolor/hycolor.sty
INPUT /usr/share/texmf-dist/tex/latex/hycolor/hycolor.sty
INPUT /usr/share/texmf-dist/tex/latex/hycolor/hycolor.sty
INPUT /usr/share/texmf-dist/tex/latex/hycolor/hycolor.sty
INPUT /usr/share/texmf-dist/tex/latex/hycolor/hycolor.sty
INPUT /usr/share/texmf-dist/tex/latex/hycolor/hycolor.sty
INPUT /usr/share/texmf-dist/tex/latex/hycolor/hycolor.sty
INPUT /usr/share/texmf-dist/tex/latex/hycolor/hycolor.sty
INPUT /usr/share/texmf-dist/tex/latex/letltxmacro/letltxmacro.sty
INPUT /usr/share/texmf-dist/tex/latex/letltxmacro/letltxmacro.sty
INPUT /usr/share/texmf-dist/tex/latex/letltxmacro/letltxmacro.sty
INPUT /usr/share/texmf-dist/tex/latex/letltxmacro/letltxmacro.sty
INPUT /usr/share/texmf-dist/tex/latex/letltxmacro/letltxmacro.sty
INPUT /usr/share/texmf-dist/tex/latex/letltxmacro/letltxmacro.sty
INPUT /usr/share/texmf-dist/tex/latex/letltxmacro/letltxmacro.sty
INPUT /usr/share/texmf-dist/tex/latex/letltxmacro/letltxmacro.sty
INPUT /usr/share/texmf-dist/tex/latex/letltxmacro/letltxmacro.sty
INPUT /usr/share/texmf-dist/tex/latex/letltxmacro/letltxmacro.sty
INPUT /usr/share/texmf-dist/tex/latex/letltxmacro/letltxmacro.sty
INPUT /usr/share/texmf-dist/tex/latex/auxhook/auxhook.sty
INPUT /usr/share/texmf-dist/tex/latex/auxhook/auxhook.sty
INPUT /usr/share/texmf-dist/tex/latex/auxhook/auxhook.sty
INPUT /usr/share/texmf-dist/tex/latex/auxhook/auxhook.sty
INPUT /usr/share/texmf-dist/tex/latex/auxhook/auxhook.sty
INPUT /usr/share/texmf-dist/tex/latex/auxhook/auxhook.sty
INPUT /usr/share/texmf-dist/tex/latex/auxhook/auxhook.sty
INPUT /usr/share/texmf-dist/tex/latex/auxhook/auxhook.sty
INPUT /usr/share/texmf-dist/tex/latex/auxhook/auxhook.sty
INPUT /usr/share/texmf-dist/tex/latex/auxhook/auxhook.sty
INPUT /usr/share/texmf-dist/tex/latex/auxhook/auxhook.sty
INPUT /usr/share/texmf-dist/tex/latex/kvoptions/kvoptions.sty
INPUT /usr/share/texmf-dist/tex/latex/kvoptions/kvoptions.sty
INPUT /usr/share/texmf-dist/tex/latex/kvoptions/kvoptions.sty
INPUT /usr/share/texmf-dist/tex/latex/kvoptions/kvoptions.sty
INPUT /usr/share/texmf-dist/tex/latex/kvoptions/kvoptions.sty
INPUT /usr/share/texmf-dist/tex/latex/kvoptions/kvoptions.sty
INPUT /usr/share/texmf-dist/tex/latex/kvoptions/kvoptions.sty
INPUT /usr/share/texmf-dist/tex/latex/kvoptions/kvoptions.sty
INPUT /usr/share/texmf-dist/tex/latex/kvoptions/kvoptions.sty
INPUT /usr/share/texmf-dist/tex/latex/kvoptions/kvoptions.sty
INPUT /usr/share/texmf-dist/tex/latex/kvoptions/kvoptions.sty
INPUT /usr/share/texmf-dist/tex/generic/ltxcmds/ltxcmds.sty
INPUT /usr/share/texmf-dist/tex/generic/kvsetkeys/kvsetkeys.sty
INPUT /usr/share/texmf-dist/tex/latex/hyperref/pd1enc.def
INPUT /usr/share/texmf-dist/tex/latex/hyperref/pd1enc.def
INPUT /usr/share/texmf-dist/tex/latex/hyperref/pd1enc.def
INPUT /usr/share/texmf-dist/tex/latex/hyperref/pd1enc.def
INPUT /usr/share/texmf-dist/tex/latex/hyperref/hyperref-langpatches.def
INPUT /usr/share/texmf-dist/tex/latex/hyperref/hyperref-langpatches.def
INPUT /usr/share/texmf-dist/tex/latex/hyperref/hyperref-langpatches.def
INPUT /usr/share/texmf-dist/tex/latex/hyperref/hyperref-langpatches.def
INPUT /usr/share/texmf-dist/tex/generic/intcalc/intcalc.sty
INPUT /usr/share/texmf-dist/tex/generic/intcalc/intcalc.sty
INPUT /usr/share/texmf-dist/tex/generic/intcalc/intcalc.sty
INPUT /usr/share/texmf-dist/tex/generic/intcalc/intcalc.sty
INPUT /usr/share/texmf-dist/tex/generic/intcalc/intcalc.sty
INPUT /usr/share/texmf-dist/tex/generic/intcalc/intcalc.sty
INPUT /usr/share/texmf-dist/tex/generic/intcalc/intcalc.sty
INPUT /usr/share/texmf-dist/tex/generic/intcalc/intcalc.sty
INPUT /usr/share/texmf-dist/tex/generic/intcalc/intcalc.sty
INPUT /usr/share/texmf-dist/tex/generic/intcalc/intcalc.sty
INPUT /usr/share/texmf-dist/tex/generic/intcalc/intcalc.sty
INPUT /usr/share/texmf-dist/tex/generic/etexcmds/etexcmds.sty
INPUT /usr/share/texmf-dist/tex/generic/etexcmds/etexcmds.sty
INPUT /usr/share/texmf-dist/tex/generic/etexcmds/etexcmds.sty
INPUT /usr/share/texmf-dist/tex/generic/etexcmds/etexcmds.sty
INPUT /usr/share/texmf-dist/tex/generic/etexcmds/etexcmds.sty
INPUT /usr/share/texmf-dist/tex/generic/etexcmds/etexcmds.sty
INPUT /usr/share/texmf-dist/tex/generic/etexcmds/etexcmds.sty
INPUT /usr/share/texmf-dist/tex/generic/etexcmds/etexcmds.sty
INPUT /usr/share/texmf-dist/tex/generic/etexcmds/etexcmds.sty
INPUT /usr/share/texmf-dist/tex/generic/etexcmds/etexcmds.sty
INPUT /usr/share/texmf-dist/tex/generic/etexcmds/etexcmds.sty
INPUT /usr/share/texmf-dist/tex/generic/infwarerr/infwarerr.sty
INPUT /usr/share/texmf-dist/tex/generic/iftex/iftex.sty
INPUT /usr/share/texmf-dist/tex/latex/hyperref/puenc.def
INPUT /usr/share/texmf-dist/tex/latex/hyperref/puenc.def
INPUT /usr/share/texmf-dist/tex/latex/hyperref/puenc.def
INPUT /usr/share/texmf-dist/tex/latex/hyperref/puenc.def
INPUT /usr/share/texmf-dist/tex/latex/url/url.sty
INPUT /usr/share/texmf-dist/tex/latex/url/url.sty
INPUT /usr/share/texmf-dist/tex/latex/url/url.sty
INPUT /usr/share/texmf-dist/tex/latex/url/url.sty
INPUT /usr/share/texmf-dist/tex/latex/url/url.sty
INPUT /usr/share/texmf-dist/tex/latex/url/url.sty
INPUT /usr/share/texmf-dist/tex/latex/url/url.sty
INPUT /usr/share/texmf-dist/tex/latex/url/url.sty
INPUT /usr/share/texmf-dist/tex/latex/url/url.sty
INPUT /usr/share/texmf-dist/tex/latex/url/url.sty
INPUT /usr/share/texmf-dist/tex/latex/url/url.sty
INPUT /usr/share/texmf-dist/tex/generic/bitset/bitset.sty
INPUT /usr/share/texmf-dist/tex/generic/bitset/bitset.sty
INPUT /usr/share/texmf-dist/tex/generic/bitset/bitset.sty
INPUT /usr/share/texmf-dist/tex/generic/bitset/bitset.sty
INPUT /usr/share/texmf-dist/tex/generic/bitset/bitset.sty
INPUT /usr/share/texmf-dist/tex/generic/bitset/bitset.sty
INPUT /usr/share/texmf-dist/tex/generic/bitset/bitset.sty
INPUT /usr/share/texmf-dist/tex/generic/bitset/bitset.sty
INPUT /usr/share/texmf-dist/tex/generic/bitset/bitset.sty
INPUT /usr/share/texmf-dist/tex/generic/bitset/bitset.sty
INPUT /usr/share/texmf-dist/tex/generic/bitset/bitset.sty
INPUT /usr/share/texmf-dist/tex/generic/infwarerr/infwarerr.sty
INPUT /usr/share/texmf-dist/tex/generic/intcalc/intcalc.sty
INPUT /usr/share/texmf-dist/tex/generic/bigintcalc/bigintcalc.sty
INPUT /usr/share/texmf-dist/tex/generic/bigintcalc/bigintcalc.sty
INPUT /usr/share/texmf-dist/tex/generic/bigintcalc/bigintcalc.sty
INPUT /usr/share/texmf-dist/tex/generic/bigintcalc/bigintcalc.sty
INPUT /usr/share/texmf-dist/tex/generic/bigintcalc/bigintcalc.sty
INPUT /usr/share/texmf-dist/tex/generic/bigintcalc/bigintcalc.sty
INPUT /usr/share/texmf-dist/tex/generic/bigintcalc/bigintcalc.sty
INPUT /usr/share/texmf-dist/tex/generic/bigintcalc/bigintcalc.sty
INPUT /usr/share/texmf-dist/tex/generic/bigintcalc/bigintcalc.sty
INPUT /usr/share/texmf-dist/tex/generic/bigintcalc/bigintcalc.sty
INPUT /usr/share/texmf-dist/tex/generic/bigintcalc/bigintcalc.sty
INPUT /usr/share/texmf-dist/tex/generic/pdftexcmds/pdftexcmds.sty
INPUT /usr/share/texmf-dist/tex/generic/atbegshi/atbegshi.sty
INPUT /usr/share/texmf-dist/tex/generic/atbegshi/atbegshi.sty
INPUT /usr/share/texmf-dist/tex/generic/atbegshi/atbegshi.sty
INPUT /usr/share/texmf-dist/tex/latex/base/atbegshi-ltx.sty
INPUT /usr/share/texmf-dist/tex/generic/atbegshi/atbegshi.sty
INPUT /usr/share/texmf-dist/tex/generic/atbegshi/atbegshi.sty
INPUT /usr/share/texmf-dist/tex/latex/base/atbegshi-ltx.sty
INPUT /usr/share/texmf-dist/tex/generic/atbegshi/atbegshi.sty
INPUT /usr/share/texmf-dist/tex/latex/base/atbegshi-ltx.sty
INPUT /usr/share/texmf-dist/tex/latex/base/atbegshi-ltx.sty
INPUT /usr/share/texmf-dist/tex/generic/atbegshi/atbegshi.sty
INPUT /usr/share/texmf-dist/tex/generic/atbegshi/atbegshi.sty
INPUT /usr/share/texmf-dist/tex/latex/base/atbegshi-ltx.sty
INPUT /usr/share/texmf-dist/tex/latex/base/atbegshi-ltx.sty
INPUT /usr/share/texmf-dist/tex/generic/atbegshi/atbegshi.sty
INPUT /usr/share/texmf-dist/tex/latex/base/atbegshi-ltx.sty
INPUT /usr/share/texmf-dist/tex/latex/hyperref/hpdftex.def
INPUT /usr/share/texmf-dist/tex/latex/hyperref/hpdftex.def
INPUT /usr/share/texmf-dist/tex/latex/hyperref/hpdftex.def
INPUT /usr/share/texmf-dist/tex/latex/hyperref/hpdftex.def
INPUT /usr/share/texmf-dist/tex/latex/atveryend/atveryend.sty
INPUT /usr/share/texmf-dist/tex/latex/atveryend/atveryend.sty
INPUT /usr/share/texmf-dist/tex/latex/atveryend/atveryend.sty
INPUT /usr/share/texmf-dist/tex/latex/base/atveryend-ltx.sty
INPUT /usr/share/texmf-dist/tex/latex/atveryend/atveryend.sty
INPUT /usr/share/texmf-dist/tex/latex/atveryend/atveryend.sty
INPUT /usr/share/texmf-dist/tex/latex/base/atveryend-ltx.sty
INPUT /usr/share/texmf-dist/tex/latex/atveryend/atveryend.sty
INPUT /usr/share/texmf-dist/tex/latex/base/atveryend-ltx.sty
INPUT /usr/share/texmf-dist/tex/latex/base/atveryend-ltx.sty
INPUT /usr/share/texmf-dist/tex/latex/atveryend/atveryend.sty
INPUT /usr/share/texmf-dist/tex/latex/atveryend/atveryend.sty
INPUT /usr/share/texmf-dist/tex/latex/base/atveryend-ltx.sty
INPUT /usr/share/texmf-dist/tex/latex/base/atveryend-ltx.sty
INPUT /usr/share/texmf-dist/tex/latex/atveryend/atveryend.sty
INPUT /usr/share/texmf-dist/tex/latex/base/atveryend-ltx.sty
INPUT /usr/share/texmf-dist/tex/latex/rerunfilecheck/rerunfilecheck.sty
INPUT /usr/share/texmf-dist/tex/latex/rerunfilecheck/rerunfilecheck.sty
INPUT /usr/share/texmf-dist/tex/latex/rerunfilecheck/rerunfilecheck.sty
INPUT /usr/share/texmf-dist/tex/latex/rerunfilecheck/rerunfilecheck.sty
INPUT /usr/share/texmf-dist/tex/latex/rerunfilecheck/rerunfilecheck.sty
INPUT /usr/share/texmf-dist/tex/latex/rerunfilecheck/rerunfilecheck.sty
INPUT /usr/share/texmf-dist/tex/latex/rerunfilecheck/rerunfilecheck.sty
INPUT /usr/share/texmf-dist/tex/latex/rerunfilecheck/rerunfilecheck.sty
INPUT /usr/share/texmf-dist/tex/latex/rerunfilecheck/rerunfilecheck.sty
INPUT /usr/share/texmf-dist/tex/latex/rerunfilecheck/rerunfilecheck.sty
INPUT /usr/share/texmf-dist/tex/latex/rerunfilecheck/rerunfilecheck.sty
INPUT /usr/share/texmf-dist/tex/latex/kvoptions/kvoptions.sty
INPUT /usr/share/texmf-dist/tex/generic/infwarerr/infwarerr.sty
INPUT /usr/share/texmf-dist/tex/generic/pdftexcmds/pdftexcmds.sty
INPUT /usr/share/texmf-dist/tex/latex/atveryend/atveryend.sty
INPUT /usr/share/texmf-dist/tex/generic/uniquecounter/uniquecounter.sty
INPUT /usr/share/texmf-dist/tex/generic/uniquecounter/uniquecounter.sty
INPUT /usr/share/texmf-dist/tex/generic/uniquecounter/uniquecounter.sty
INPUT /usr/share/texmf-dist/tex/generic/uniquecounter/uniquecounter.sty
INPUT /usr/share/texmf-dist/tex/generic/uniquecounter/uniquecounter.sty
INPUT /usr/share/texmf-dist/tex/generic/uniquecounter/uniquecounter.sty
INPUT /usr/share/texmf-dist/tex/generic/uniquecounter/uniquecounter.sty
INPUT /usr/share/texmf-dist/tex/generic/uniquecounter/uniquecounter.sty
INPUT /usr/share/texmf-dist/tex/generic/uniquecounter/uniquecounter.sty
INPUT /usr/share/texmf-dist/tex/generic/uniquecounter/uniquecounter.sty
INPUT /usr/share/texmf-dist/tex/generic/uniquecounter/uniquecounter.sty
INPUT /usr/share/texmf-dist/tex/generic/bigintcalc/bigintcalc.sty
INPUT /usr/share/texmf-dist/tex/generic/infwarerr/infwarerr.sty
INPUT /usr/share/texmf-dist/tex/latex/amsmath/amsmath.sty
INPUT /usr/share/texmf-dist/tex/latex/amsmath/amsmath.sty
INPUT /usr/share/texmf-dist/tex/latex/amsmath/amsmath.sty
INPUT /usr/share/texmf-dist/tex/latex/amsmath/amsmath.sty
INPUT /usr/share/texmf-dist/tex/latex/amsmath/amsmath.sty
INPUT /usr/share/texmf-dist/tex/latex/amsmath/amsmath.sty
INPUT /usr/share/texmf-dist/tex/latex/amsmath/amsmath.sty
INPUT /usr/share/texmf-dist/tex/latex/amsmath/amsmath.sty
INPUT /usr/share/texmf-dist/tex/latex/amsmath/amsmath.sty
INPUT /usr/share/texmf-dist/tex/latex/amsmath/amsmath.sty
INPUT /usr/share/texmf-dist/tex/latex/amsmath/amsmath.sty
INPUT /usr/share/texmf-dist/tex/latex/amsmath/amsopn.sty
INPUT /usr/share/texmf-dist/tex/latex/amsmath/amsopn.sty
INPUT /usr/share/texmf-dist/tex/latex/amsmath/amstext.sty
INPUT /usr/share/texmf-dist/tex/latex/amsmath/amstext.sty
INPUT /usr/share/texmf-dist/tex/latex/amsmath/amstext.sty
INPUT /usr/share/texmf-dist/tex/latex/amsmath/amstext.sty
INPUT /usr/share/texmf-dist/tex/latex/amsmath/amstext.sty
INPUT /usr/share/texmf-dist/tex/latex/amsmath/amstext.sty
INPUT /usr/share/texmf-dist/tex/latex/amsmath/amstext.sty
INPUT /usr/share/texmf-dist/tex/latex/amsmath/amstext.sty
INPUT /usr/share/texmf-dist/tex/latex/amsmath/amstext.sty
INPUT /usr/share/texmf-dist/tex/latex/amsmath/amstext.sty
INPUT /usr/share/texmf-dist/tex/latex/amsmath/amstext.sty
INPUT /usr/share/texmf-dist/tex/latex/amsmath/amsgen.sty
INPUT /usr/share/texmf-dist/tex/latex/amsmath/amsgen.sty
INPUT /usr/share/texmf-dist/tex/latex/amsmath/amsgen.sty
INPUT /usr/share/texmf-dist/tex/latex/amsmath/amsgen.sty
INPUT /usr/share/texmf-dist/tex/latex/amsmath/amsgen.sty
INPUT /usr/share/texmf-dist/tex/latex/amsmath/amsgen.sty
INPUT /usr/share/texmf-dist/tex/latex/amsmath/amsgen.sty
INPUT /usr/share/texmf-dist/tex/latex/amsmath/amsgen.sty
INPUT /usr/share/texmf-dist/tex/latex/amsmath/amsgen.sty
INPUT /usr/share/texmf-dist/tex/latex/amsmath/amsgen.sty
INPUT /usr/share/texmf-dist/tex/latex/amsmath/amsgen.sty
INPUT /usr/share/texmf-dist/tex/latex/amsmath/amsbsy.sty
INPUT /usr/share/texmf-dist/tex/latex/amsmath/amsbsy.sty
INPUT /usr/share/texmf-dist/tex/latex/amsmath/amsbsy.sty
INPUT /usr/share/texmf-dist/tex/latex/amsmath/amsbsy.sty
INPUT /usr/share/texmf-dist/tex/latex/amsmath/amsbsy.sty
INPUT /usr/share/texmf-dist/tex/latex/amsmath/amsbsy.sty
INPUT /usr/share/texmf-dist/tex/latex/amsmath/amsbsy.sty
INPUT /usr/share/texmf-dist/tex/latex/amsmath/amsbsy.sty
INPUT /usr/share/texmf-dist/tex/latex/amsmath/amsbsy.sty
INPUT /usr/share/texmf-dist/tex/latex/amsmath/amsbsy.sty
INPUT /usr/share/texmf-dist/tex/latex/amsmath/amsbsy.sty
INPUT /usr/share/texmf-dist/tex/latex/amsmath/amsgen.sty
INPUT /usr/share/texmf-dist/tex/latex/amsmath/amsopn.sty
INPUT /usr/share/texmf-dist/tex/latex/amsmath/amsopn.sty
INPUT /usr/share/texmf-dist/tex/latex/amsmath/amsopn.sty
INPUT /usr/share/texmf-dist/tex/latex/amsmath/amsopn.sty
INPUT /usr/share/texmf-dist/tex/latex/amsmath/amsopn.sty
INPUT /usr/share/texmf-dist/tex/latex/amsmath/amsopn.sty
INPUT /usr/share/texmf-dist/tex/latex/amsmath/amsopn.sty
INPUT /usr/share/texmf-dist/tex/latex/amsmath/amsopn.sty
INPUT /usr/share/texmf-dist/tex/latex/amsmath/amsopn.sty
INPUT /usr/share/texmf-dist/tex/latex/amsmath/amsopn.sty
INPUT /usr/share/texmf-dist/tex/latex/amsmath/amsopn.sty
INPUT /usr/share/texmf-dist/tex/latex/amsmath/amsgen.sty
INPUT /usr/share/texmf-dist/tex/latex/tools/bm.sty
INPUT /usr/share/texmf-dist/tex/latex/tools/bm.sty
INPUT /usr/share/texmf-dist/tex/latex/tools/bm.sty
INPUT /usr/share/texmf-dist/tex/latex/tools/bm.sty
INPUT /usr/share/texmf-dist/tex/latex/tools/bm.sty
INPUT /usr/share/texmf-dist/tex/latex/tools/bm.sty
INPUT /usr/share/texmf-dist/tex/latex/tools/bm.sty
INPUT /usr/share/texmf-dist/tex/latex/tools/bm.sty
INPUT /usr/share/texmf-dist/tex/latex/tools/bm.sty
INPUT /usr/share/texmf-dist/tex/latex/tools/bm.sty
INPUT /usr/share/texmf-dist/tex/latex/tools/bm.sty
INPUT /usr/share/texmf-dist/tex/latex/was/upgreek.sty
INPUT /usr/share/texmf-dist/tex/latex/was/upgreek.sty
INPUT /usr/share/texmf-dist/tex/latex/was/upgreek.sty
INPUT /usr/share/texmf-dist/tex/latex/was/upgreek.sty
INPUT /usr/share/texmf-dist/tex/latex/was/upgreek.sty
INPUT /usr/share/texmf-dist/tex/latex/was/upgreek.sty
INPUT /usr/share/texmf-dist/tex/latex/was/upgreek.sty
INPUT /usr/share/texmf-dist/tex/latex/was/upgreek.sty
INPUT /usr/share/texmf-dist/tex/latex/was/upgreek.sty
INPUT /usr/share/texmf-dist/tex/latex/was/upgreek.sty
INPUT /usr/share/texmf-dist/tex/latex/was/upgreek.sty
INPUT /usr/share/texmf-dist/tex/latex/txfonts/t1txtt.fd
INPUT /usr/share/texmf-dist/tex/latex/txfonts/t1txtt.fd
INPUT /usr/share/texmf-dist/tex/latex/txfonts/t1txtt.fd
INPUT /usr/share/texmf-dist/tex/latex/txfonts/t1txtt.fd
INPUT /usr/share/texmf-dist/fonts/map/fontname/texfonts.map
INPUT /usr/share/texmf-dist/fonts/tfm/public/txfonts/t1xbtt.tfm
INPUT /usr/share/texmf-dist/fonts/tfm/public/txfonts/t1xtt.tfm
INPUT /usr/share/texmf-dist/tex/latex/xcolor/xcolor.sty
INPUT /usr/share/texmf-dist/tex/latex/xcolor/xcolor.sty
INPUT /usr/share/texmf-dist/tex/latex/xcolor/xcolor.sty
INPUT /usr/share/texmf-dist/tex/latex/xcolor/xcolor.sty
INPUT /usr/share/texmf-dist/tex/latex/xcolor/xcolor.sty
INPUT /usr/share/texmf-dist/tex/latex/xcolor/xcolor.sty
INPUT /usr/share/texmf-dist/tex/latex/xcolor/xcolor.sty
INPUT /usr/share/texmf-dist/tex/latex/xcolor/xcolor.sty
INPUT /usr/share/texmf-dist/tex/latex/xcolor/xcolor.sty
INPUT /usr/share/texmf-dist/tex/latex/xcolor/xcolor.sty
INPUT /usr/share/texmf-dist/tex/latex/xcolor/xcolor.sty
INPUT /usr/share/texmf-dist/tex/latex/graphics-cfg/color.cfg
INPUT /usr/share/texmf-dist/tex/latex/graphics-cfg/color.cfg
INPUT /usr/share/texmf-dist/tex/latex/graphics-cfg/color.cfg
INPUT /usr/share/texmf-dist/tex/latex/graphics-cfg/color.cfg
INPUT /usr/share/texmf-dist/tex/latex/graphics/dvipsnam.def
INPUT /usr/share/texmf-dist/tex/latex/graphics/dvipsnam.def
INPUT /usr/share/texmf-dist/tex/latex/graphics/dvipsnam.def
INPUT /usr/share/texmf-dist/tex/latex/graphics/dvipsnam.def
INPUT /usr/share/texmf-dist/tex/latex/listings/listings.sty
INPUT /usr/share/texmf-dist/tex/latex/listings/listings.sty
INPUT /usr/share/texmf-dist/tex/latex/listings/listings.sty
INPUT /usr/share/texmf-dist/tex/latex/listings/listings.sty
INPUT /usr/share/texmf-dist/tex/latex/listings/listings.sty
INPUT /usr/share/texmf-dist/tex/latex/listings/listings.sty
INPUT /usr/share/texmf-dist/tex/latex/listings/listings.sty
INPUT /usr/share/texmf-dist/tex/latex/listings/listings.sty
INPUT /usr/share/texmf-dist/tex/latex/listings/listings.sty
INPUT /usr/share/texmf-dist/tex/latex/listings/listings.sty
INPUT /usr/share/texmf-dist/tex/latex/listings/listings.sty
INPUT /usr/share/texmf-dist/tex/latex/graphics/keyval.sty
INPUT /usr/share/texmf-dist/tex/latex/listings/lstmisc.sty
INPUT /usr/share/texmf-dist/tex/latex/listings/lstmisc.sty
INPUT /usr/share/texmf-dist/tex/latex/listings/lstmisc.sty
INPUT /usr/share/texmf-dist/tex/latex/listings/lstmisc.sty
INPUT /usr/share/texmf-dist/tex/latex/listings/listings.cfg
INPUT /usr/share/texmf-dist/tex/latex/listings/listings.cfg
INPUT /usr/share/texmf-dist/tex/latex/listings/listings.cfg
INPUT /usr/share/texmf-dist/tex/latex/listings/listings.cfg
INPUT /usr/share/texmf-dist/tex/latex/mdframed/mdframed.sty
INPUT /usr/share/texmf-dist/tex/latex/mdframed/mdframed.sty
INPUT /usr/share/texmf-dist/tex/latex/mdframed/mdframed.sty
INPUT /usr/share/texmf-dist/tex/latex/mdframed/mdframed.sty
INPUT /usr/share/texmf-dist/tex/latex/mdframed/mdframed.sty
INPUT /usr/share/texmf-dist/tex/latex/mdframed/mdframed.sty
INPUT /usr/share/texmf-dist/tex/latex/mdframed/mdframed.sty
INPUT /usr/share/texmf-dist/tex/latex/mdframed/mdframed.sty
INPUT /usr/share/texmf-dist/tex/latex/mdframed/mdframed.sty
INPUT /usr/share/texmf-dist/tex/latex/mdframed/mdframed.sty
INPUT /usr/share/texmf-dist/tex/latex/mdframed/mdframed.sty
INPUT /usr/share/texmf-dist/tex/latex/kvoptions/kvoptions.sty
INPUT /usr/share/texmf-dist/tex/latex/l3packages/xparse/xparse.sty
INPUT /usr/share/texmf-dist/tex/latex/l3packages/xparse/xparse.sty
INPUT /usr/share/texmf-dist/tex/latex/l3packages/xparse/xparse.sty
INPUT /usr/share/texmf-dist/tex/latex/l3packages/xparse/xparse.sty
INPUT /usr/share/texmf-dist/tex/latex/l3packages/xparse/xparse.sty
INPUT /usr/share/texmf-dist/tex/latex/l3packages/xparse/xparse.sty
INPUT /usr/share/texmf-dist/tex/latex/l3packages/xparse/xparse.sty
INPUT /usr/share/texmf-dist/tex/latex/l3packages/xparse/xparse.sty
INPUT /usr/share/texmf-dist/tex/latex/l3packages/xparse/xparse.sty
INPUT /usr/share/texmf-dist/tex/latex/l3packages/xparse/xparse.sty
INPUT /usr/share/texmf-dist/tex/latex/l3packages/xparse/xparse.sty
INPUT /usr/share/texmf-dist/tex/latex/l3kernel/expl3.sty
INPUT /usr/share/texmf-dist/tex/latex/l3kernel/expl3.sty
INPUT /usr/share/texmf-dist/tex/latex/l3kernel/expl3.sty
INPUT /usr/share/texmf-dist/tex/latex/l3kernel/expl3.sty
INPUT /usr/share/texmf-dist/tex/latex/l3kernel/expl3.sty
INPUT /usr/share/texmf-dist/tex/latex/l3kernel/expl3.sty
INPUT /usr/share/texmf-dist/tex/latex/l3kernel/expl3.sty
INPUT /usr/share/texmf-dist/tex/latex/l3kernel/expl3.sty
INPUT /usr/share/texmf-dist/tex/latex/l3kernel/expl3.sty
INPUT /usr/share/texmf-dist/tex/latex/l3kernel/expl3.sty
INPUT /usr/share/texmf-dist/tex/latex/l3kernel/expl3.sty
INPUT /usr/share/texmf-dist/tex/latex/l3backend/l3backend-pdftex.def
INPUT /usr/share/texmf-dist/tex/latex/l3backend/l3backend-pdftex.def
INPUT /usr/share/texmf-dist/tex/latex/l3backend/l3backend-pdftex.def
INPUT /usr/share/texmf-dist/tex/latex/l3backend/l3backend-pdftex.def
INPUT /usr/share/texmf-dist/tex/latex/l3backend/l3backend-pdftex.def
INPUT /usr/share/texmf-dist/tex/latex/l3backend/l3backend-pdftex.def
INPUT /usr/share/texmf-dist/tex/latex/l3backend/l3backend-pdftex.def
INPUT /usr/share/texmf-dist/tex/latex/l3backend/l3backend-pdftex.def
INPUT /usr/share/texmf-dist/tex/latex/l3backend/l3backend-pdftex.def
INPUT /usr/share/texmf-dist/tex/latex/l3backend/l3backend-pdftex.def
INPUT /usr/share/texmf-dist/tex/latex/l3backend/l3backend-pdftex.def
INPUT /usr/share/texmf-dist/tex/latex/l3packages/xparse/xparse-2020-10-01.sty
INPUT /usr/share/texmf-dist/tex/latex/l3packages/xparse/xparse-2020-10-01.sty
INPUT /usr/share/texmf-dist/tex/latex/l3packages/xparse/xparse-2020-10-01.sty
INPUT /usr/share/texmf-dist/tex/latex/l3packages/xparse/xparse-2020-10-01.sty
INPUT /usr/share/texmf-dist/tex/latex/l3packages/xparse/xparse-2020-10-01.sty
INPUT /usr/share/texmf-dist/tex/latex/l3packages/xparse/xparse-2020-10-01.sty
INPUT /usr/share/texmf-dist/tex/latex/l3packages/xparse/xparse-2020-10-01.sty
INPUT /usr/share/texmf-dist/tex/latex/l3packages/xparse/xparse-2020-10-01.sty
INPUT /usr/share/texmf-dist/tex/latex/l3packages/xparse/xparse-2020-10-01.sty
INPUT /usr/share/texmf-dist/tex/latex/l3packages/xparse/xparse-2020-10-01.sty
INPUT /usr/share/texmf-dist/tex/latex/l3packages/xparse/xparse-2020-10-01.sty
INPUT /usr/share/texmf-dist/tex/latex/l3kernel/expl3.sty
INPUT /usr/share/texmf-dist/tex/latex/l3packages/xparse/xparse-generic.tex
INPUT /usr/share/texmf-dist/tex/latex/etoolbox/etoolbox.sty
INPUT /usr/share/texmf-dist/tex/latex/etoolbox/etoolbox.sty
INPUT /usr/share/texmf-dist/tex/latex/etoolbox/etoolbox.sty
INPUT /usr/share/texmf-dist/tex/latex/etoolbox/etoolbox.sty
INPUT /usr/share/texmf-dist/tex/latex/etoolbox/etoolbox.sty
INPUT /usr/share/texmf-dist/tex/latex/etoolbox/etoolbox.sty
INPUT /usr/share/texmf-dist/tex/latex/etoolbox/etoolbox.sty
INPUT /usr/share/texmf-dist/tex/latex/etoolbox/etoolbox.sty
INPUT /usr/share/texmf-dist/tex/latex/etoolbox/etoolbox.sty
INPUT /usr/share/texmf-dist/tex/latex/etoolbox/etoolbox.sty
INPUT /usr/share/texmf-dist/tex/latex/etoolbox/etoolbox.sty
INPUT /usr/share/texmf-dist/tex/latex/zref/zref-abspage.sty
INPUT /usr/share/texmf-dist/tex/latex/zref/zref-abspage.sty
INPUT /usr/share/texmf-dist/tex/latex/zref/zref-abspage.sty
INPUT /usr/share/texmf-dist/tex/latex/zref/zref-abspage.sty
INPUT /usr/share/texmf-dist/tex/latex/zref/zref-abspage.sty
INPUT /usr/share/texmf-dist/tex/latex/zref/zref-abspage.sty
INPUT /usr/share/texmf-dist/tex/latex/zref/zref-abspage.sty
INPUT /usr/share/texmf-dist/tex/latex/zref/zref-abspage.sty
INPUT /usr/share/texmf-dist/tex/latex/zref/zref-abspage.sty
INPUT /usr/share/texmf-dist/tex/latex/zref/zref-abspage.sty
INPUT /usr/share/texmf-dist/tex/latex/zref/zref-abspage.sty
INPUT /usr/share/texmf-dist/tex/latex/zref/zref-base.sty
INPUT /usr/share/texmf-dist/tex/latex/zref/zref-base.sty
INPUT /usr/share/texmf-dist/tex/latex/zref/zref-base.sty
INPUT /usr/share/texmf-dist/tex/latex/zref/zref-base.sty
INPUT /usr/share/texmf-dist/tex/latex/zref/zref-base.sty
INPUT /usr/share/texmf-dist/tex/latex/zref/zref-base.sty
INPUT /usr/share/texmf-dist/tex/latex/zref/zref-base.sty
INPUT /usr/share/texmf-dist/tex/latex/zref/zref-base.sty
INPUT /usr/share/texmf-dist/tex/latex/zref/zref-base.sty
INPUT /usr/share/texmf-dist/tex/latex/zref/zref-base.sty
INPUT /usr/share/texmf-dist/tex/latex/zref/zref-base.sty
INPUT /usr/share/texmf-dist/tex/generic/ltxcmds/ltxcmds.sty
INPUT /usr/share/texmf-dist/tex/generic/infwarerr/infwarerr.sty
INPUT /usr/share/texmf-dist/tex/generic/kvsetkeys/kvsetkeys.sty
INPUT /usr/share/texmf-dist/tex/generic/kvdefinekeys/kvdefinekeys.sty
INPUT /usr/share/texmf-dist/tex/generic/pdftexcmds/pdftexcmds.sty
INPUT /usr/share/texmf-dist/tex/generic/etexcmds/etexcmds.sty
INPUT /usr/share/texmf-dist/tex/latex/auxhook/auxhook.sty
INPUT /usr/share/texmf-dist/tex/generic/atbegshi/atbegshi.sty
INPUT /usr/share/texmf-dist/tex/latex/needspace/needspace.sty
INPUT /usr/share/texmf-dist/tex/latex/needspace/needspace.sty
INPUT /usr/share/texmf-dist/tex/latex/needspace/needspace.sty
INPUT /usr/share/texmf-dist/tex/latex/needspace/needspace.sty
INPUT /usr/share/texmf-dist/tex/latex/needspace/needspace.sty
INPUT /usr/share/texmf-dist/tex/latex/needspace/needspace.sty
INPUT /usr/share/texmf-dist/tex/latex/needspace/needspace.sty
INPUT /usr/share/texmf-dist/tex/latex/needspace/needspace.sty
INPUT /usr/share/texmf-dist/tex/latex/needspace/needspace.sty
INPUT /usr/share/texmf-dist/tex/latex/needspace/needspace.sty
INPUT /usr/share/texmf-dist/tex/latex/needspace/needspace.sty
INPUT /usr/share/texmf-dist/tex/latex/graphics/color.sty
INPUT /usr/share/texmf-dist/tex/latex/pgf/frontendlayer/tikz.sty
INPUT /usr/share/texmf-dist/tex/latex/pgf/frontendlayer/tikz.sty
INPUT /usr/share/texmf-dist/tex/latex/pgf/frontendlayer/tikz.sty
INPUT /usr/share/texmf-dist/tex/latex/pgf/frontendlayer/tikz.sty
INPUT /usr/share/texmf-dist/tex/latex/pgf/frontendlayer/tikz.sty
INPUT /usr/share/texmf-dist/tex/latex/pgf/frontendlayer/tikz.sty
INPUT /usr/share/texmf-dist/tex/latex/pgf/frontendlayer/tikz.sty
INPUT /usr/share/texmf-dist/tex/latex/pgf/frontendlayer/tikz.sty
INPUT /usr/share/texmf-dist/tex/latex/pgf/frontendlayer/tikz.sty
INPUT /usr/share/texmf-dist/tex/latex/pgf/frontendlayer/tikz.sty
INPUT /usr/share/texmf-dist/tex/latex/pgf/frontendlayer/tikz.sty
INPUT /usr/share/texmf-dist/tex/latex/pgf/frontendlayer/tikz.sty
INPUT /usr/share/texmf-dist/tex/latex/pgf/frontendlayer/tikz.sty
INPUT /usr/share/texmf-dist/tex/latex/pgf/basiclayer/pgf.sty
INPUT /usr/share/texmf-dist/tex/latex/pgf/basiclayer/pgf.sty
INPUT /usr/share/texmf-dist/tex/latex/pgf/basiclayer/pgf.sty
INPUT /usr/share/texmf-dist/tex/latex/pgf/basiclayer/pgf.sty
INPUT /usr/share/texmf-dist/tex/latex/pgf/basiclayer/pgf.sty
INPUT /usr/share/texmf-dist/tex/latex/pgf/basiclayer/pgf.sty
INPUT /usr/share/texmf-dist/tex/latex/pgf/basiclayer/pgf.sty
INPUT /usr/share/texmf-dist/tex/latex/pgf/basiclayer/pgf.sty
INPUT /usr/share/texmf-dist/tex/latex/pgf/basiclayer/pgf.sty
INPUT /usr/share/texmf-dist/tex/latex/pgf/basiclayer/pgf.sty
INPUT /usr/share/texmf-dist/tex/latex/pgf/basiclayer/pgf.sty
INPUT /usr/share/texmf-dist/tex/latex/pgf/utilities/pgfrcs.sty
INPUT /usr/share/texmf-dist/tex/latex/pgf/utilities/pgfrcs.sty
INPUT /usr/share/texmf-dist/tex/latex/pgf/utilities/pgfrcs.sty
INPUT /usr/share/texmf-dist/tex/latex/pgf/utilities/pgfrcs.sty
INPUT /usr/share/texmf-dist/tex/latex/pgf/utilities/pgfrcs.sty
INPUT /usr/share/texmf-dist/tex/latex/pgf/utilities/pgfrcs.sty
INPUT /usr/share/texmf-dist/tex/latex/pgf/utilities/pgfrcs.sty
INPUT /usr/share/texmf-dist/tex/latex/pgf/utilities/pgfrcs.sty
INPUT /usr/share/texmf-dist/tex/latex/pgf/utilities/pgfrcs.sty
INPUT /usr/share/texmf-dist/tex/latex/pgf/utilities/pgfrcs.sty
INPUT /usr/share/texmf-dist/tex/latex/pgf/utilities/pgfrcs.sty
INPUT /usr/share/texmf-dist/tex/generic/pgf/utilities/pgfutil-common.tex
INPUT /usr/share/texmf-dist/tex/generic/pgf/utilities/pgfutil-common-lists.tex
INPUT /usr/share/texmf-dist/tex/generic/pgf/utilities/pgfutil-latex.def
INPUT /usr/share/texmf-dist/tex/generic/pgf/utilities/pgfrcs.code.tex
INPUT /usr/share/texmf-dist/tex/generic/pgf/utilities/pgfrcs.code.tex
INPUT /usr/share/texmf-dist/tex/generic/pgf/utilities/pgfrcs.code.tex
INPUT /usr/share/texmf-dist/tex/generic/pgf/utilities/pgfrcs.code.tex
INPUT /usr/share/texmf-dist/tex/generic/pgf/pgf.revision.tex
INPUT /usr/share/texmf-dist/tex/generic/pgf/pgf.revision.tex
INPUT /usr/share/texmf-dist/tex/latex/pgf/basiclayer/pgfcore.sty
INPUT /usr/share/texmf-dist/tex/latex/pgf/basiclayer/pgfcore.sty
INPUT /usr/share/texmf-dist/tex/latex/pgf/basiclayer/pgfcore.sty
INPUT /usr/share/texmf-dist/tex/latex/pgf/basiclayer/pgfcore.sty
INPUT /usr/share/texmf-dist/tex/latex/pgf/basiclayer/pgfcore.sty
INPUT /usr/share/texmf-dist/tex/latex/pgf/basiclayer/pgfcore.sty
INPUT /usr/share/texmf-dist/tex/latex/pgf/basiclayer/pgfcore.sty
INPUT /usr/share/texmf-dist/tex/latex/pgf/basiclayer/pgfcore.sty
INPUT /usr/share/texmf-dist/tex/latex/pgf/basiclayer/pgfcore.sty
INPUT /usr/share/texmf-dist/tex/latex/pgf/basiclayer/pgfcore.sty
INPUT /usr/share/texmf-dist/tex/latex/pgf/basiclayer/pgfcore.sty
INPUT /usr/share/texmf-dist/tex/latex/graphics/graphicx.sty
INPUT /usr/share/texmf-dist/tex/latex/pgf/systemlayer/pgfsys.sty
INPUT /usr/share/texmf-dist/tex/latex/pgf/systemlayer/pgfsys.sty
INPUT /usr/share/texmf-dist/tex/latex/pgf/systemlayer/pgfsys.sty
INPUT /usr/share/texmf-dist/tex/latex/pgf/systemlayer/pgfsys.sty
INPUT /usr/share/texmf-dist/tex/latex/pgf/systemlayer/pgfsys.sty
INPUT /usr/share/texmf-dist/tex/latex/pgf/systemlayer/pgfsys.sty
INPUT /usr/share/texmf-dist/tex/latex/pgf/systemlayer/pgfsys.sty
INPUT /usr/share/texmf-dist/tex/latex/pgf/systemlayer/pgfsys.sty
INPUT /usr/share/texmf-dist/tex/latex/pgf/systemlayer/pgfsys.sty
INPUT /usr/share/texmf-dist/tex/latex/pgf/systemlayer/pgfsys.sty
INPUT /usr/share/texmf-dist/tex/latex/pgf/systemlayer/pgfsys.sty
INPUT /usr/share/texmf-dist/tex/latex/pgf/utilities/pgfrcs.sty
INPUT /usr/share/texmf-dist/tex/generic/pgf/systemlayer/pgfsys.code.tex
INPUT /usr/share/texmf-dist/tex/generic/pgf/systemlayer/pgfsys.code.tex
INPUT /usr/share/texmf-dist/tex/generic/pgf/systemlayer/pgfsys.code.tex
INPUT /usr/share/texmf-dist/tex/generic/pgf/systemlayer/pgfsys.code.tex
INPUT /usr/share/texmf-dist/tex/generic/pgf/utilities/pgfkeys.code.tex
INPUT /usr/share/texmf-dist/tex/generic/pgf/utilities/pgfkeysfiltered.code.tex
INPUT /usr/share/texmf-dist/tex/generic/pgf/systemlayer/pgf.cfg
INPUT /usr/share/texmf-dist/tex/generic/pgf/systemlayer/pgfsys-pdftex.def
INPUT /usr/share/texmf-dist/tex/generic/pgf/systemlayer/pgfsys-pdftex.def
INPUT /usr/share/texmf-dist/tex/generic/pgf/systemlayer/pgfsys-common-pdf.def
INPUT /usr/share/texmf-dist/tex/generic/pgf/systemlayer/pgfsyssoftpath.code.tex
INPUT /usr/share/texmf-dist/tex/generic/pgf/systemlayer/pgfsyssoftpath.code.tex
INPUT /usr/share/texmf-dist/tex/generic/pgf/systemlayer/pgfsyssoftpath.code.tex
INPUT /usr/share/texmf-dist/tex/generic/pgf/systemlayer/pgfsyssoftpath.code.tex
INPUT /usr/share/texmf-dist/tex/generic/pgf/systemlayer/pgfsysprotocol.code.tex
INPUT /usr/share/texmf-dist/tex/generic/pgf/systemlayer/pgfsysprotocol.code.tex
INPUT /usr/share/texmf-dist/tex/generic/pgf/systemlayer/pgfsysprotocol.code.tex
INPUT /usr/share/texmf-dist/tex/generic/pgf/systemlayer/pgfsysprotocol.code.tex
INPUT /usr/share/texmf-dist/tex/latex/graphics/keyval.sty
INPUT /usr/share/texmf-dist/tex/latex/xcolor/xcolor.sty
INPUT /usr/share/texmf-dist/tex/generic/pgf/basiclayer/pgfcore.code.tex
INPUT /usr/share/texmf-dist/tex/generic/pgf/basiclayer/pgfcore.code.tex
INPUT /usr/share/texmf-dist/tex/generic/pgf/basiclayer/pgfcore.code.tex
INPUT /usr/share/texmf-dist/tex/generic/pgf/basiclayer/pgfcore.code.tex
INPUT /usr/share/texmf-dist/tex/generic/pgf/math/pgfmath.code.tex
INPUT /usr/share/texmf-dist/tex/generic/pgf/math/pgfmathcalc.code.tex
INPUT /usr/share/texmf-dist/tex/generic/pgf/math/pgfmathutil.code.tex
INPUT /usr/share/texmf-dist/tex/generic/pgf/math/pgfmathparser.code.tex
INPUT /usr/share/texmf-dist/tex/generic/pgf/math/pgfmathfunctions.code.tex
INPUT /usr/share/texmf-dist/tex/generic/pgf/math/pgfmathfunctions.basic.code.tex
INPUT /usr/share/texmf-dist/tex/generic/pgf/math/pgfmathfunctions.trigonometric.code.tex
INPUT /usr/share/texmf-dist/tex/generic/pgf/math/pgfmathfunctions.random.code.tex
INPUT /usr/share/texmf-dist/tex/generic/pgf/math/pgfmathfunctions.comparison.code.tex
INPUT /usr/share/texmf-dist/tex/generic/pgf/math/pgfmathfunctions.base.code.tex
INPUT /usr/share/texmf-dist/tex/generic/pgf/math/pgfmathfunctions.round.code.tex
INPUT /usr/share/texmf-dist/tex/generic/pgf/math/pgfmathfunctions.misc.code.tex
INPUT /usr/share/texmf-dist/tex/generic/pgf/math/pgfmathfunctions.integerarithmetics.code.tex
INPUT /usr/share/texmf-dist/tex/generic/pgf/math/pgfmathfloat.code.tex
INPUT /usr/share/texmf-dist/tex/generic/pgf/math/pgfint.code.tex
INPUT /usr/share/texmf-dist/tex/generic/pgf/basiclayer/pgfcorepoints.code.tex
INPUT /usr/share/texmf-dist/tex/generic/pgf/basiclayer/pgfcorepathconstruct.code.tex
INPUT /usr/share/texmf-dist/tex/generic/pgf/basiclayer/pgfcorepathusage.code.tex
INPUT /usr/share/texmf-dist/tex/generic/pgf/basiclayer/pgfcorescopes.code.tex
INPUT /usr/share/texmf-dist/tex/generic/pgf/basiclayer/pgfcoregraphicstate.code.tex
INPUT /usr/share/texmf-dist/tex/generic/pgf/basiclayer/pgfcoretransformations.code.tex
INPUT /usr/share/texmf-dist/tex/generic/pgf/basiclayer/pgfcorequick.code.tex
INPUT /usr/share/texmf-dist/tex/generic/pgf/basiclayer/pgfcoreobjects.code.tex
INPUT /usr/share/texmf-dist/tex/generic/pgf/basiclayer/pgfcorepathprocessing.code.tex
INPUT /usr/share/texmf-dist/tex/generic/pgf/basiclayer/pgfcorearrows.code.tex
INPUT /usr/share/texmf-dist/tex/generic/pgf/basiclayer/pgfcoreshade.code.tex
INPUT /usr/share/texmf-dist/tex/generic/pgf/basiclayer/pgfcoreimage.code.tex
INPUT /usr/share/texmf-dist/tex/generic/pgf/basiclayer/pgfcoreexternal.code.tex
INPUT /usr/share/texmf-dist/tex/generic/pgf/basiclayer/pgfcorelayers.code.tex
INPUT /usr/share/texmf-dist/tex/generic/pgf/basiclayer/pgfcoretransparency.code.tex
INPUT /usr/share/texmf-dist/tex/generic/pgf/basiclayer/pgfcorepatterns.code.tex
INPUT /usr/share/texmf-dist/tex/generic/pgf/basiclayer/pgfcorerdf.code.tex
INPUT /usr/share/texmf-dist/tex/generic/pgf/modules/pgfmoduleshapes.code.tex
INPUT /usr/share/texmf-dist/tex/generic/pgf/modules/pgfmoduleplot.code.tex
INPUT /usr/share/texmf-dist/tex/latex/pgf/compatibility/pgfcomp-version-0-65.sty
INPUT /usr/share/texmf-dist/tex/latex/pgf/compatibility/pgfcomp-version-0-65.sty
INPUT /usr/share/texmf-dist/tex/latex/pgf/compatibility/pgfcomp-version-0-65.sty
INPUT /usr/share/texmf-dist/tex/latex/pgf/compatibility/pgfcomp-version-0-65.sty
INPUT /usr/share/texmf-dist/tex/latex/pgf/compatibility/pgfcomp-version-0-65.sty
INPUT /usr/share/texmf-dist/tex/latex/pgf/compatibility/pgfcomp-version-0-65.sty
INPUT /usr/share/texmf-dist/tex/latex/pgf/compatibility/pgfcomp-version-0-65.sty
INPUT /usr/share/texmf-dist/tex/latex/pgf/compatibility/pgfcomp-version-0-65.sty
INPUT /usr/share/texmf-dist/tex/latex/pgf/compatibility/pgfcomp-version-0-65.sty
INPUT /usr/share/texmf-dist/tex/latex/pgf/compatibility/pgfcomp-version-0-65.sty
INPUT /usr/share/texmf-dist/tex/latex/pgf/compatibility/pgfcomp-version-0-65.sty
INPUT /usr/share/texmf-dist/tex/latex/pgf/utilities/pgfrcs.sty
INPUT /usr/share/texmf-dist/tex/latex/pgf/compatibility/pgfcomp-version-1-18.sty
INPUT /usr/share/texmf-dist/tex/latex/pgf/compatibility/pgfcomp-version-1-18.sty
INPUT /usr/share/texmf-dist/tex/latex/pgf/compatibility/pgfcomp-version-1-18.sty
INPUT /usr/share/texmf-dist/tex/latex/pgf/compatibility/pgfcomp-version-1-18.sty
INPUT /usr/share/texmf-dist/tex/latex/pgf/compatibility/pgfcomp-version-1-18.sty
INPUT /usr/share/texmf-dist/tex/latex/pgf/compatibility/pgfcomp-version-1-18.sty
INPUT /usr/share/texmf-dist/tex/latex/pgf/compatibility/pgfcomp-version-1-18.sty
INPUT /usr/share/texmf-dist/tex/latex/pgf/compatibility/pgfcomp-version-1-18.sty
INPUT /usr/share/texmf-dist/tex/latex/pgf/compatibility/pgfcomp-version-1-18.sty
INPUT /usr/share/texmf-dist/tex/latex/pgf/compatibility/pgfcomp-version-1-18.sty
INPUT /usr/share/texmf-dist/tex/latex/pgf/compatibility/pgfcomp-version-1-18.sty
INPUT /usr/share/texmf-dist/tex/latex/pgf/utilities/pgfrcs.sty
INPUT /usr/share/texmf-dist/tex/latex/pgf/utilities/pgffor.sty
INPUT /usr/share/texmf-dist/tex/latex/pgf/utilities/pgffor.sty
INPUT /usr/share/texmf-dist/tex/latex/pgf/utilities/pgffor.sty
INPUT /usr/share/texmf-dist/tex/latex/pgf/utilities/pgffor.sty
INPUT /usr/share/texmf-dist/tex/latex/pgf/utilities/pgffor.sty
INPUT /usr/share/texmf-dist/tex/latex/pgf/utilities/pgffor.sty
INPUT /usr/share/texmf-dist/tex/latex/pgf/utilities/pgffor.sty
INPUT /usr/share/texmf-dist/tex/latex/pgf/utilities/pgffor.sty
INPUT /usr/share/texmf-dist/tex/latex/pgf/utilities/pgffor.sty
INPUT /usr/share/texmf-dist/tex/latex/pgf/utilities/pgffor.sty
INPUT /usr/share/texmf-dist/tex/latex/pgf/utilities/pgffor.sty
INPUT /usr/share/texmf-dist/tex/latex/pgf/utilities/pgfrcs.sty
INPUT /usr/share/texmf-dist/tex/latex/pgf/utilities/pgfkeys.sty
INPUT /usr/share/texmf-dist/tex/latex/pgf/utilities/pgfkeys.sty
INPUT /usr/share/texmf-dist/tex/latex/pgf/utilities/pgfkeys.sty
INPUT /usr/share/texmf-dist/tex/latex/pgf/utilities/pgfkeys.sty
INPUT /usr/share/texmf-dist/tex/latex/pgf/utilities/pgfkeys.sty
INPUT /usr/share/texmf-dist/tex/latex/pgf/utilities/pgfkeys.sty
INPUT /usr/share/texmf-dist/tex/latex/pgf/utilities/pgfkeys.sty
INPUT /usr/share/texmf-dist/tex/latex/pgf/utilities/pgfkeys.sty
INPUT /usr/share/texmf-dist/tex/latex/pgf/utilities/pgfkeys.sty
INPUT /usr/share/texmf-dist/tex/latex/pgf/utilities/pgfkeys.sty
INPUT /usr/share/texmf-dist/tex/latex/pgf/utilities/pgfkeys.sty
INPUT /usr/share/texmf-dist/tex/generic/pgf/utilities/pgfkeys.code.tex
INPUT /usr/share/texmf-dist/tex/generic/pgf/utilities/pgfkeys.code.tex
INPUT /usr/share/texmf-dist/tex/generic/pgf/utilities/pgfkeys.code.tex
INPUT /usr/share/texmf-dist/tex/generic/pgf/utilities/pgfkeys.code.tex
INPUT /usr/share/texmf-dist/tex/latex/pgf/math/pgfmath.sty
INPUT /usr/share/texmf-dist/tex/latex/pgf/math/pgfmath.sty
INPUT /usr/share/texmf-dist/tex/latex/pgf/math/pgfmath.sty
INPUT /usr/share/texmf-dist/tex/latex/pgf/math/pgfmath.sty
INPUT /usr/share/texmf-dist/tex/latex/pgf/math/pgfmath.sty
INPUT /usr/share/texmf-dist/tex/latex/pgf/math/pgfmath.sty
INPUT /usr/share/texmf-dist/tex/latex/pgf/math/pgfmath.sty
INPUT /usr/share/texmf-dist/tex/latex/pgf/math/pgfmath.sty
INPUT /usr/share/texmf-dist/tex/latex/pgf/math/pgfmath.sty
INPUT /usr/share/texmf-dist/tex/latex/pgf/math/pgfmath.sty
INPUT /usr/share/texmf-dist/tex/latex/pgf/math/pgfmath.sty
INPUT /usr/share/texmf-dist/tex/latex/pgf/utilities/pgfrcs.sty
INPUT /usr/share/texmf-dist/tex/latex/pgf/utilities/pgfkeys.sty
INPUT /usr/share/texmf-dist/tex/generic/pgf/math/pgfmath.code.tex
INPUT /usr/share/texmf-dist/tex/generic/pgf/math/pgfmath.code.tex
INPUT /usr/share/texmf-dist/tex/generic/pgf/math/pgfmath.code.tex
INPUT /usr/share/texmf-dist/tex/generic/pgf/math/pgfmath.code.tex
INPUT /usr/share/texmf-dist/tex/generic/pgf/utilities/pgffor.code.tex
INPUT /usr/share/texmf-dist/tex/generic/pgf/utilities/pgffor.code.tex
INPUT /usr/share/texmf-dist/tex/generic/pgf/utilities/pgffor.code.tex
INPUT /usr/share/texmf-dist/tex/generic/pgf/utilities/pgffor.code.tex
INPUT /usr/share/texmf-dist/tex/generic/pgf/math/pgfmath.code.tex
INPUT /usr/share/texmf-dist/tex/generic/pgf/frontendlayer/tikz/tikz.code.tex
INPUT /usr/share/texmf-dist/tex/generic/pgf/frontendlayer/tikz/tikz.code.tex
INPUT /usr/share/texmf-dist/tex/generic/pgf/frontendlayer/tikz/tikz.code.tex
INPUT /usr/share/texmf-dist/tex/generic/pgf/frontendlayer/tikz/tikz.code.tex
INPUT /usr/share/texmf-dist/tex/generic/pgf/libraries/pgflibraryplothandlers.code.tex
INPUT /usr/share/texmf-dist/tex/generic/pgf/libraries/pgflibraryplothandlers.code.tex
INPUT /usr/share/texmf-dist/tex/generic/pgf/modules/pgfmodulematrix.code.tex
INPUT /usr/share/texmf-dist/tex/generic/pgf/frontendlayer/tikz/libraries/tikzlibrarytopaths.code.tex
INPUT /usr/share/texmf-dist/tex/generic/pgf/frontendlayer/tikz/libraries/tikzlibrarytopaths.code.tex
INPUT /usr/share/texmf-dist/tex/latex/mdframed/md-frame-1.mdf
INPUT /usr/share/texmf-dist/tex/latex/mdframed/md-frame-1.mdf
INPUT /usr/share/texmf-dist/tex/latex/mdframed/md-frame-1.mdf
INPUT /usr/share/texmf-dist/tex/latex/mdframed/md-frame-1.mdf
INPUT /usr/share/texmf-dist/tex/latex/amsmath/amsmath.sty
INPUT /usr/share/texmf-dist/tex/latex/amscls/amsthm.sty
INPUT /usr/share/texmf-dist/tex/latex/amscls/amsthm.sty
INPUT /usr/share/texmf-dist/tex/latex/amscls/amsthm.sty
INPUT /usr/share/texmf-dist/tex/latex/amscls/amsthm.sty
INPUT /usr/share/texmf-dist/tex/latex/amscls/amsthm.sty
INPUT /usr/share/texmf-dist/tex/latex/amscls/amsthm.sty
INPUT /usr/share/texmf-dist/tex/latex/amscls/amsthm.sty
INPUT /usr/share/texmf-dist/tex/latex/amscls/amsthm.sty
INPUT /usr/share/texmf-dist/tex/latex/amscls/amsthm.sty
INPUT /usr/share/texmf-dist/tex/latex/amscls/amsthm.sty
INPUT /usr/share/texmf-dist/tex/latex/amscls/amsthm.sty
INPUT /usr/share/texmf-dist/tex/latex/amsfonts/amsfonts.sty
INPUT /usr/share/texmf-dist/tex/latex/amsfonts/amsfonts.sty
INPUT /usr/share/texmf-dist/tex/latex/amsfonts/amsfonts.sty
INPUT /usr/share/texmf-dist/tex/latex/amsfonts/amsfonts.sty
INPUT /usr/share/texmf-dist/tex/latex/amsfonts/amsfonts.sty
INPUT /usr/share/texmf-dist/tex/latex/amsfonts/amsfonts.sty
INPUT /usr/share/texmf-dist/tex/latex/amsfonts/amsfonts.sty
INPUT /usr/share/texmf-dist/tex/latex/amsfonts/amsfonts.sty
INPUT /usr/share/texmf-dist/tex/latex/amsfonts/amsfonts.sty
INPUT /usr/share/texmf-dist/tex/latex/amsfonts/amsfonts.sty
INPUT /usr/share/texmf-dist/tex/latex/amsfonts/amsfonts.sty
INPUT /usr/share/texmf-dist/tex/latex/lipsum/lipsum.sty
INPUT /usr/share/texmf-dist/tex/latex/lipsum/lipsum.sty
INPUT /usr/share/texmf-dist/tex/latex/lipsum/lipsum.sty
INPUT /usr/share/texmf-dist/tex/latex/lipsum/lipsum.sty
INPUT /usr/share/texmf-dist/tex/latex/lipsum/lipsum.sty
INPUT /usr/share/texmf-dist/tex/latex/lipsum/lipsum.sty
INPUT /usr/share/texmf-dist/tex/latex/lipsum/lipsum.sty
INPUT /usr/share/texmf-dist/tex/latex/lipsum/lipsum.sty
INPUT /usr/share/texmf-dist/tex/latex/lipsum/lipsum.sty
INPUT /usr/share/texmf-dist/tex/latex/lipsum/lipsum.sty
INPUT /usr/share/texmf-dist/tex/latex/lipsum/lipsum.sty
INPUT /usr/share/texmf-dist/tex/latex/l3kernel/expl3.sty
INPUT /usr/share/texmf-dist/tex/latex/l3packages/xparse/xparse.sty
INPUT /usr/share/texmf-dist/tex/latex/lipsum/lipsum.ltd.tex
INPUT /usr/share/texmf-dist/tex/latex/lipsum/lipsum.ltd.tex
INPUT /usr/share/texmf-dist/tex/latex/tcolorbox/tcolorbox.sty
INPUT /usr/share/texmf-dist/tex/latex/tcolorbox/tcolorbox.sty
INPUT /usr/share/texmf-dist/tex/latex/tcolorbox/tcolorbox.sty
INPUT /usr/share/texmf-dist/tex/latex/tcolorbox/tcolorbox.sty
INPUT /usr/share/texmf-dist/tex/latex/tcolorbox/tcolorbox.sty
INPUT /usr/share/texmf-dist/tex/latex/tcolorbox/tcolorbox.sty
INPUT /usr/share/texmf-dist/tex/latex/tcolorbox/tcolorbox.sty
INPUT /usr/share/texmf-dist/tex/latex/tcolorbox/tcolorbox.sty
INPUT /usr/share/texmf-dist/tex/latex/tcolorbox/tcolorbox.sty
INPUT /usr/share/texmf-dist/tex/latex/tcolorbox/tcolorbox.sty
INPUT /usr/share/texmf-dist/tex/latex/tcolorbox/tcolorbox.sty
INPUT /usr/share/texmf-dist/tex/latex/pgf/basiclayer/pgf.sty
INPUT /usr/share/texmf-dist/tex/latex/tools/verbatim.sty
INPUT /usr/share/texmf-dist/tex/latex/tools/verbatim.sty
INPUT /usr/share/texmf-dist/tex/latex/tools/verbatim.sty
INPUT /usr/share/texmf-dist/tex/latex/tools/verbatim.sty
INPUT /usr/share/texmf-dist/tex/latex/tools/verbatim.sty
INPUT /usr/share/texmf-dist/tex/latex/tools/verbatim.sty
INPUT /usr/share/texmf-dist/tex/latex/tools/verbatim.sty
INPUT /usr/share/texmf-dist/tex/latex/tools/verbatim.sty
INPUT /usr/share/texmf-dist/tex/latex/tools/verbatim.sty
INPUT /usr/share/texmf-dist/tex/latex/tools/verbatim.sty
INPUT /usr/share/texmf-dist/tex/latex/tools/verbatim.sty
INPUT /usr/share/texmf-dist/tex/latex/environ/environ.sty
INPUT /usr/share/texmf-dist/tex/latex/environ/environ.sty
INPUT /usr/share/texmf-dist/tex/latex/environ/environ.sty
INPUT /usr/share/texmf-dist/tex/latex/environ/environ.sty
INPUT /usr/share/texmf-dist/tex/latex/environ/environ.sty
INPUT /usr/share/texmf-dist/tex/latex/environ/environ.sty
INPUT /usr/share/texmf-dist/tex/latex/environ/environ.sty
INPUT /usr/share/texmf-dist/tex/latex/environ/environ.sty
INPUT /usr/share/texmf-dist/tex/latex/environ/environ.sty
INPUT /usr/share/texmf-dist/tex/latex/environ/environ.sty
INPUT /usr/share/texmf-dist/tex/latex/environ/environ.sty
INPUT /usr/share/texmf-dist/tex/latex/trimspaces/trimspaces.sty
INPUT /usr/share/texmf-dist/tex/latex/trimspaces/trimspaces.sty
INPUT /usr/share/texmf-dist/tex/latex/trimspaces/trimspaces.sty
INPUT /usr/share/texmf-dist/tex/latex/trimspaces/trimspaces.sty
INPUT /usr/share/texmf-dist/tex/latex/trimspaces/trimspaces.sty
INPUT /usr/share/texmf-dist/tex/latex/trimspaces/trimspaces.sty
INPUT /usr/share/texmf-dist/tex/latex/trimspaces/trimspaces.sty
INPUT /usr/share/texmf-dist/tex/latex/trimspaces/trimspaces.sty
INPUT /usr/share/texmf-dist/tex/latex/trimspaces/trimspaces.sty
INPUT /usr/share/texmf-dist/tex/latex/trimspaces/trimspaces.sty
INPUT /usr/share/texmf-dist/tex/latex/trimspaces/trimspaces.sty
INPUT /usr/share/texmf-dist/tex/latex/etoolbox/etoolbox.sty
INPUT /usr/share/texmf-dist/tex/latex/tcolorbox/tcbskins.code.tex
INPUT /usr/share/texmf-dist/tex/latex/pgf/frontendlayer/tikz.sty
INPUT /usr/share/texmf-dist/tex/latex/tcolorbox/tcbskinsjigsaw.code.tex
INPUT /usr/share/texmf-dist/tex/latex/tcolorbox/tcbbreakable.code.tex
INPUT /usr/share/texmf-dist/tex/generic/oberdiek/pdfcol.sty
INPUT /usr/share/texmf-dist/tex/generic/oberdiek/pdfcol.sty
INPUT /usr/share/texmf-dist/tex/generic/oberdiek/pdfcol.sty
INPUT /usr/share/texmf-dist/tex/generic/oberdiek/pdfcol.sty
INPUT /usr/share/texmf-dist/tex/generic/oberdiek/pdfcol.sty
INPUT /usr/share/texmf-dist/tex/generic/oberdiek/pdfcol.sty
INPUT /usr/share/texmf-dist/tex/generic/oberdiek/pdfcol.sty
INPUT /usr/share/texmf-dist/tex/generic/oberdiek/pdfcol.sty
INPUT /usr/share/texmf-dist/tex/generic/oberdiek/pdfcol.sty
INPUT /usr/share/texmf-dist/tex/generic/oberdiek/pdfcol.sty
INPUT /usr/share/texmf-dist/tex/generic/oberdiek/pdfcol.sty
INPUT /usr/share/texmf-dist/tex/generic/ltxcmds/ltxcmds.sty
INPUT /usr/share/texmf-dist/tex/generic/infwarerr/infwarerr.sty
INPUT /usr/share/texmf-dist/tex/generic/iftex/iftex.sty
INPUT /usr/share/texmf-dist/tex/latex/tcolorbox/tcbtheorems.code.tex
INPUT /usr/share/texmf-dist/tex/latex/amsmath/amsmath.sty
INPUT /usr/share/texmf-dist/tex/latex/changepage/changepage.sty
INPUT /usr/share/texmf-dist/tex/latex/changepage/changepage.sty
INPUT /usr/share/texmf-dist/tex/latex/changepage/changepage.sty
INPUT /usr/share/texmf-dist/tex/latex/changepage/changepage.sty
INPUT /usr/share/texmf-dist/tex/latex/changepage/changepage.sty
INPUT /usr/share/texmf-dist/tex/latex/changepage/changepage.sty
INPUT /usr/share/texmf-dist/tex/latex/changepage/changepage.sty
INPUT /usr/share/texmf-dist/tex/latex/changepage/changepage.sty
INPUT /usr/share/texmf-dist/tex/latex/changepage/changepage.sty
INPUT /usr/share/texmf-dist/tex/latex/changepage/changepage.sty
INPUT /usr/share/texmf-dist/tex/latex/changepage/changepage.sty
INPUT /home/volker/Sync/DatenVolker/git/sm_with_julia/Brüsselator/eqs.aux
INPUT /home/volker/Sync/DatenVolker/git/sm_with_julia/Brüsselator/eqs.aux
INPUT /home/volker/Sync/DatenVolker/git/sm_with_julia/Brüsselator/eqs.aux
OUTPUT /home/volker/Sync/DatenVolker/git/sm_with_julia/Brüsselator/eqs.aux
INPUT /usr/share/texmf-dist/tex/context/base/mkii/supp-pdf.mkii
INPUT /usr/share/texmf-dist/tex/context/base/mkii/supp-pdf.mkii
INPUT /usr/share/texmf-dist/tex/context/base/mkii/supp-pdf.mkii
INPUT /usr/share/texmf-dist/tex/context/base/mkii/supp-pdf.mkii
INPUT /usr/share/texmf-dist/tex/latex/epstopdf-pkg/epstopdf-base.sty
INPUT /usr/share/texmf-dist/tex/latex/epstopdf-pkg/epstopdf-base.sty
INPUT /usr/share/texmf-dist/tex/latex/epstopdf-pkg/epstopdf-base.sty
INPUT /usr/share/texmf-dist/tex/latex/epstopdf-pkg/epstopdf-base.sty
INPUT /usr/share/texmf-dist/tex/latex/epstopdf-pkg/epstopdf-base.sty
INPUT /usr/share/texmf-dist/tex/latex/epstopdf-pkg/epstopdf-base.sty
INPUT /usr/share/texmf-dist/tex/latex/epstopdf-pkg/epstopdf-base.sty
INPUT /usr/share/texmf-dist/tex/latex/epstopdf-pkg/epstopdf-base.sty
INPUT /usr/share/texmf-dist/tex/latex/epstopdf-pkg/epstopdf-base.sty
INPUT /usr/share/texmf-dist/tex/latex/epstopdf-pkg/epstopdf-base.sty
INPUT /usr/share/texmf-dist/tex/latex/epstopdf-pkg/epstopdf-base.sty
INPUT /usr/share/texmf-dist/tex/latex/latexconfig/epstopdf-sys.cfg
INPUT /usr/share/texmf-dist/tex/latex/latexconfig/epstopdf-sys.cfg
INPUT /usr/share/texmf-dist/tex/latex/latexconfig/epstopdf-sys.cfg
INPUT /usr/share/texmf-dist/tex/latex/latexconfig/epstopdf-sys.cfg
INPUT /usr/share/texmf-dist/tex/latex/graphics/color.sty
INPUT /usr/share/texmf-dist/tex/latex/hyperref/nameref.sty
INPUT /usr/share/texmf-dist/tex/latex/hyperref/nameref.sty
INPUT /usr/share/texmf-dist/tex/latex/hyperref/nameref.sty
INPUT /usr/share/texmf-dist/tex/latex/hyperref/nameref.sty
INPUT /usr/share/texmf-dist/tex/latex/hyperref/nameref.sty
INPUT /usr/share/texmf-dist/tex/latex/hyperref/nameref.sty
INPUT /usr/share/texmf-dist/tex/latex/hyperref/nameref.sty
INPUT /usr/share/texmf-dist/tex/latex/hyperref/nameref.sty
INPUT /usr/share/texmf-dist/tex/latex/hyperref/nameref.sty
INPUT /usr/share/texmf-dist/tex/latex/hyperref/nameref.sty
INPUT /usr/share/texmf-dist/tex/latex/hyperref/nameref.sty
INPUT /usr/share/texmf-dist/tex/latex/refcount/refcount.sty
INPUT /usr/share/texmf-dist/tex/latex/refcount/refcount.sty
INPUT /usr/share/texmf-dist/tex/latex/refcount/refcount.sty
INPUT /usr/share/texmf-dist/tex/latex/refcount/refcount.sty
INPUT /usr/share/texmf-dist/tex/latex/refcount/refcount.sty
INPUT /usr/share/texmf-dist/tex/latex/refcount/refcount.sty
INPUT /usr/share/texmf-dist/tex/latex/refcount/refcount.sty
INPUT /usr/share/texmf-dist/tex/latex/refcount/refcount.sty
INPUT /usr/share/texmf-dist/tex/latex/refcount/refcount.sty
INPUT /usr/share/texmf-dist/tex/latex/refcount/refcount.sty
INPUT /usr/share/texmf-dist/tex/latex/refcount/refcount.sty
INPUT /usr/share/texmf-dist/tex/generic/ltxcmds/ltxcmds.sty
INPUT /usr/share/texmf-dist/tex/generic/infwarerr/infwarerr.sty
INPUT /usr/share/texmf-dist/tex/generic/gettitlestring/gettitlestring.sty
INPUT /usr/share/texmf-dist/tex/generic/gettitlestring/gettitlestring.sty
INPUT /usr/share/texmf-dist/tex/generic/gettitlestring/gettitlestring.sty
INPUT /usr/share/texmf-dist/tex/generic/gettitlestring/gettitlestring.sty
INPUT /usr/share/texmf-dist/tex/generic/gettitlestring/gettitlestring.sty
INPUT /usr/share/texmf-dist/tex/generic/gettitlestring/gettitlestring.sty
INPUT /usr/share/texmf-dist/tex/generic/gettitlestring/gettitlestring.sty
INPUT /usr/share/texmf-dist/tex/generic/gettitlestring/gettitlestring.sty
INPUT /usr/share/texmf-dist/tex/generic/gettitlestring/gettitlestring.sty
INPUT /usr/share/texmf-dist/tex/generic/gettitlestring/gettitlestring.sty
INPUT /usr/share/texmf-dist/tex/generic/gettitlestring/gettitlestring.sty
INPUT /usr/share/texmf-dist/tex/latex/kvoptions/kvoptions.sty
INPUT /usr/share/texmf-dist/tex/generic/ltxcmds/ltxcmds.sty
INPUT /home/volker/Sync/DatenVolker/git/sm_with_julia/Brüsselator/eqs.out
INPUT /home/volker/Sync/DatenVolker/git/sm_with_julia/Brüsselator/eqs.out
INPUT /home/volker/Sync/DatenVolker/git/sm_with_julia/Brüsselator/eqs.out
INPUT /home/volker/Sync/DatenVolker/git/sm_with_julia/Brüsselator/eqs.out
INPUT /home/volker/Sync/DatenVolker/git/sm_with_julia/Brüsselator/eqs.out
INPUT /home/volker/Sync/DatenVolker/git/sm_with_julia/Brüsselator/eqs.out
INPUT /home/volker/Sync/DatenVolker/git/sm_with_julia/Brüsselator/eqs.out
INPUT /home/volker/Sync/DatenVolker/git/sm_with_julia/Brüsselator/eqs.out
OUTPUT /home/volker/Sync/DatenVolker/git/sm_with_julia/Brüsselator/eqs.pdf
INPUT /home/volker/Sync/DatenVolker/git/sm_with_julia/Brüsselator/eqs.out
INPUT /home/volker/Sync/DatenVolker/git/sm_with_julia/Brüsselator/eqs.out
OUTPUT /home/volker/Sync/DatenVolker/git/sm_with_julia/Brüsselator/eqs.out
INPUT /usr/share/texmf-dist/fonts/tfm/public/cm/cmr12.tfm
INPUT /usr/share/texmf-dist/fonts/tfm/public/cm/cmbx12.tfm
INPUT /usr/share/texmf-dist/fonts/tfm/public/amsfonts/cmextra/cmex7.tfm
INPUT /usr/share/texmf-dist/fonts/tfm/public/amsfonts/cmextra/cmex7.tfm
INPUT /usr/share/texmf-dist/fonts/tfm/public/cm/cmbx10.tfm
INPUT /usr/share/texmf-dist/fonts/tfm/public/cm/cmbx7.tfm
INPUT /usr/share/texmf-dist/fonts/tfm/public/cm/cmbx5.tfm
INPUT /usr/share/texmf-dist/fonts/tfm/public/cm/cmmib10.tfm
INPUT /usr/share/texmf-dist/fonts/tfm/public/amsfonts/cmextra/cmmib7.tfm
INPUT /usr/share/texmf-dist/fonts/tfm/public/amsfonts/cmextra/cmmib5.tfm
INPUT /usr/share/texmf-dist/fonts/tfm/public/cm/cmbsy10.tfm
INPUT /usr/share/texmf-dist/fonts/tfm/public/amsfonts/cmextra/cmbsy7.tfm
INPUT /usr/share/texmf-dist/fonts/tfm/public/amsfonts/cmextra/cmbsy5.tfm
INPUT /usr/share/texmf-dist/fonts/tfm/public/amsfonts/euler/eurm10.tfm
INPUT /usr/share/texmf-dist/fonts/tfm/public/amsfonts/euler/eurm7.tfm
INPUT /usr/share/texmf-dist/fonts/tfm/public/amsfonts/euler/eurm5.tfm
INPUT /usr/share/texmf-dist/tex/latex/amsfonts/umsa.fd
INPUT /usr/share/texmf-dist/tex/latex/amsfonts/umsa.fd
INPUT /usr/share/texmf-dist/tex/latex/amsfonts/umsa.fd
INPUT /usr/share/texmf-dist/tex/latex/amsfonts/umsa.fd
INPUT /usr/share/texmf-dist/fonts/tfm/public/amsfonts/symbols/msam10.tfm
INPUT /usr/share/texmf-dist/fonts/tfm/public/amsfonts/symbols/msam7.tfm
INPUT /usr/share/texmf-dist/fonts/tfm/public/amsfonts/symbols/msam5.tfm
INPUT /usr/share/texmf-dist/tex/latex/amsfonts/umsb.fd
INPUT /usr/share/texmf-dist/tex/latex/amsfonts/umsb.fd
INPUT /usr/share/texmf-dist/tex/latex/amsfonts/umsb.fd
INPUT /usr/share/texmf-dist/tex/latex/amsfonts/umsb.fd
INPUT /usr/share/texmf-dist/fonts/tfm/public/amsfonts/symbols/msbm10.tfm
INPUT /usr/share/texmf-dist/fonts/tfm/public/amsfonts/symbols/msbm7.tfm
INPUT /usr/share/texmf-dist/fonts/tfm/public/amsfonts/symbols/msbm5.tfm
INPUT /var/lib/texmf/fonts/map/pdftex/updmap/pdftex.map
INPUT /home/volker/Sync/DatenVolker/git/sm_with_julia/Brüsselator/eqs.aux
INPUT /home/volker/Sync/DatenVolker/git/sm_with_julia/Brüsselator/eqs.out
INPUT /home/volker/Sync/DatenVolker/git/sm_with_julia/Brüsselator/eqs.out
INPUT /usr/share/texmf-dist/fonts/type1/public/amsfonts/cm/cmbx12.pfb
INPUT /usr/share/texmf-dist/fonts/type1/public/amsfonts/cm/cmmi10.pfb
INPUT /usr/share/texmf-dist/fonts/type1/public/amsfonts/cm/cmr10.pfb
INPUT /usr/share/texmf-dist/fonts/type1/public/amsfonts/cm/cmr7.pfb
INPUT /usr/share/texmf-dist/fonts/type1/public/amsfonts/cm/cmsy10.pfb
INPUT /usr/share/texmf-dist/fonts/type1/public/amsfonts/cm/cmsy7.pfb
